{
    "Header": {

        "title": "We are a Landing Page",
        "paragraph": "Lorem ipsum dolor sit amet, consectetur adipiscing elit. Duis sed dapibus leo nec ornare diam sed commodo nibh ante facilisis bibendum."

    },
    "About": {
        "paragraph": "Lorem ipsum dolor sit amet, consectetur adipiscing elit, sed do eiusmod tempor incididunt ut labore et dolore magna aliqua. Ut enim ad minim veniam, quis nostrud exercitation ullamco laboris nisi ut aliquip ex ea commodo consequat. Lorem ipsum dolor sit amet, consectetur adipiscing elit, sed do eiusmod tempor incididunt ut labore et dolore magna aliqua.",
        "Why": [
            "Lorem ipsum dolor",
            "Tempor incididunt",
            "Lorem ipsum dolor",
            "Incididunt ut labore"
        ],
        "Why2": [
            "Aliquip ex ea commodo",
            "Lorem ipsum dolor",
            "Exercitation ullamco",
            "Lorem ipsum dolor"
        ]
    },
    "Services": [{
            "image": "img/services/1.svg",
            "name": "Scanner basic",
            "text": "Scanner Basic vous permet de numériser et de stocker gratuitement vos reçus . Accessibles à tout moment et en quelques clics, fini les cartons remplis de papiers !."
        },
        {
            "image": "img/services/2.svg",
            "name": "Scanner Pro",
            "text": "Organisez votre administration financière avec Scanner Pro. Inclut la reconnaissance de texte via l’OCR, finissez-en avec la saisie manuelle des données ! Les options d’exportation comprennent les formats PDF, XLSX, CSV et UBL."
        },
        {
            "image": "img/services/3.svg",
            "name": "Intergration dans votre logiciel",
            "text": "Notre solution vous permet de suivre et traiter les dépenses efficacement grâce à une intégration avec votre progiciel de comptabilité . Un gain de temps considérable, beaucoup moins d’erreurs, et des employés plus heureux !"
        },
        {
            "image": "img/services/4.png",
            "name": "Traitement des factures Scanner",
            "text": "Collectez l’ensemble des vos factures via e-mail, web et application ; traitez-les via notre processus digital de vérification ; et enregistrez le tout automatiquement dans votre logiciel et journal comptable. la technologie OCR développée par Scanner rendent le traitement de vos factures plus simple, rapide et efficace."
        },
        {
            "image": "img/services/4.png",
            "name": "Gestion de profile",
            "text": "Le travail d'équipe n'a jamais été aussi facile.Inscrivez vous,créé votre profil et ajouté vos collaborateurs dans votre espace de travail à vous! Ça vous en bouche un coin…"
        }
        
    ],
    "Testimonials": [{
            "img": "img/testimonials/01.jpg",
            "text": "\"Scanner est efficace pour stocker toutes mes factures et avoir une vue claire sur mon administration financière..\"",
            "name": "jean"
        },
        {
            "img": "img/testimonials/02.jpg",
            "text": "\"Je suis très satisfaite quant à l’intégration de Scanner dans mon logiciel de comptabilité. Nous traitons les reçus et les factures en quelques clics !\"",
            "name": "fabrice"
        },
        {
            "img": "img/testimonials/03.jpg",
            "text": "\"Lorem ipsum dolor sit amet, consectetur adipiscing elit. Duis sed dapibus leo nec ornare diam sedasd commodo nibh ante facilisis bibendum dolor feugiat at.\"",
            "name": "pierre"
        },
        {
            "img": "img/testimonials/04.jpg",
            "text": "\"Lorem ipsum dolor sit amet, consectetur adipiscing elit. Duis sed dapibus leo nec ornare diam sedasd commodo nibh ante facilisis bibendum dolor feugiat at.\"",
            "name": "yasmine"
        },
        {
            "img": "img/testimonials/05.jpg",
            "text": "\"Lorem ipsum dolor sit amet, consectetur adipiscing elit. Duis sed dapibus leo nec ornare diam sedasd commodo nibh ante facilisis bibendum dolor feugiat at.\"",
            "name": "John Doe"
        },
        {
            "img": "img/testimonials/06.jpg",
            "text": "\"Lorem ipsum dolor sit amet, consectetur adipiscing elit. Duis sed dapibus leo nec ornare diam sedasd commodo nibh ante facilisis bibendum dolor feugiat at.\"",
            "name": "Emmanuelle"
        }
    ],
    "Team": [{
            "img": "img/team/01.jpg",
            "name": "John Doe",
            "job": "Director"
        },
        {
            "img": "img/team/02.jpg",
            "name": "Mike Doe",
            "job": "Senior Designer"
        }, {
            "img": "img/team/03.jpg",
            "name": "Jane Doe",
            "job": "Senior Designer"
        },
        {
            "img": "img/team/04.jpg",
            "name": "Karen Doe",
            "job": "Project Manager"
        }
    ],
    "Contact": {
        "address": "04 bp abidjan 104 ",
        "phone": "+225 21 25 02 40 78",
        "email": "Akil@company.com",
        "facebook": "#",
        "twitter": "#"
        
    },
    "Features": [{
            "icon": "fa fa-comments-o",
            "title": "Lorem ipsum",
            "text": "Lorem ipsum dolor sit amet placerat facilisis felis mi in tempus eleifend pellentesque natoque etiam."
        },
        {
            "icon": "fa fa-bullhorn",
            "title": "Lorem ipsum",
            "text": "Lorem ipsum dolor sit amet placerat facilisis felis mi in tempus eleifend pellentesque natoque etiam."
        },
        {
            "icon": "fa fa-group",
            "title": "Lorem ipsum",
            "text": "Lorem ipsum dolor sit amet placerat facilisis felis mi in tempus eleifend pellentesque natoque etiam."
        },
        {
            "icon": "fa fa-magic",
            "title": "Lorem ipsum",
            "text": "Lorem ipsum dolor sit amet placerat facilisis felis mi in tempus eleifend pellentesque natoque etiam."
        }
    ]
}